\relax 
\providecommand\hyper@newdestlabel[2]{}
\providecommand\HyperFirstAtBeginDocument{\AtBeginDocument}
\HyperFirstAtBeginDocument{\ifx\hyper@anchor\@undefined
\global\let\oldcontentsline\contentsline
\gdef\contentsline#1#2#3#4{\oldcontentsline{#1}{#2}{#3}}
\global\let\oldnewlabel\newlabel
\gdef\newlabel#1#2{\newlabelxx{#1}#2}
\gdef\newlabelxx#1#2#3#4#5#6{\oldnewlabel{#1}{{#2}{#3}}}
\AtEndDocument{\ifx\hyper@anchor\@undefined
\let\contentsline\oldcontentsline
\let\newlabel\oldnewlabel
\fi}
\fi}
\global\let\hyper@last\relax 
\gdef\HyperFirstAtBeginDocument#1{#1}
\providecommand\HyField@AuxAddToFields[1]{}
\providecommand\HyField@AuxAddToCoFields[2]{}
\@writefile{lof}{\contentsline {figure}{\numberline {1}{\ignorespaces Top view of maze and game view\relax }}{3}{figure.caption.4}}
\@writefile{lof}{\contentsline {figure}{\numberline {2}{\ignorespaces Different Enemies creature, zombie, skeleton\relax }}{4}{figure.caption.9}}
\citation{tutorial}
\citation{astar}
\citation{xmpp}
\citation{sensor}
\@writefile{lof}{\contentsline {figure}{\numberline {3}{\ignorespaces \relax }}{8}{figure.caption.17}}
\bibcite{astar}{1}
\bibcite{android}{2}
\bibcite{tutorial}{3}
\bibcite{xmpp}{4}
\bibcite{sensor}{5}
\bibcite{googlevr}{6}
